{
  "organization": "PT",
  "environments": [
    {
      "name": "pre-prod",
      "peerCount": 2,
      "ordererCount": 3,
      "channelCount": 1,
      "monitorCount": 1,
      "testCount": 4,
      "failedTestCount": 2
    }
  ]
}
